…
## fuzzyjoin (R)

The [`fuzzyjoin`](https://cran.r-project.org/web/packages/fuzzyjoin/index.html)
package wraps the [`stringdist`](https://github.com/markvanderloo/stringdist)
package (among others) in a dplyr-like interface, so instead of `left_join()` it
provides `stringdist_left_join()`, etc.  It only matches one column at a time.

Various matching algorithms are available, e.g. Jaro-Winkler, which are
specified and parameterised in the call to `stringdist_left_join()`.

See `R/fuzzyjoin.R` for a working example.

```
# A tibble: 672 x 3
                            match.x                          match.y     score
                              <chr>                            <chr>     <dbl>
 1            adur district council            adur district council 0.0000000
 2        allerdale borough council        allerdale borough council 0.0000000
 3     amber valley borough council     amber valley borough council 0.0000000
 4           antrim borough council           antrim borough council 0.0000000
 5         wroughton parish council           antrim borough council 0.1775253
 6 armagh city and district council armagh city and district council 0.0000000
 7             arts council england             arts council england 0.0000000
 8            arclid parish council            arun district council 0.1760037
 9            arun district council            arun district council 0.0000000
10        ashfield district council        ashfield district council 0.0000000
# ... with 662 more rows
```
…
